{
    "treefeller" : {
        "min_power":"level * 5",
        "max_power":"level * 10",
        "enabled":true,
        "treasure":false,
        "curse":false,
        "max_level":5,
        "min_level":10
    }
}