{
    "replace" : false,
    "values":[
        {"id":"minecraft:iron_ore", "required" : false},
        {"id":"minecraft:gold_ore", "required" : false},
        {"id":"minecraft:deepslate_iron_ore", "required" : false},
        {"id":"minecraft:deepslate_coal_ore", "required" : false},
        {"id":"minecraft:deepslate_lapis_ore", "required" : false},
        {"id":"minecraft:deepslate_diamond_ore", "required" : false},
        {"id":"minecraft:deepslate_redstone_ore", "required" : false},
        {"id":"minecraft:deepslate_emerald_ore", "required" : false},
        {"id":"minecraft:deepslate_copper_ore", "required" : false},
        {"id":"minecraft:deepslate_gold_ore", "required" : false},
        {"id":"minecraft:coal_ore", "required" : false},
        {"id":"minecraft:lapis_ore", "required" : false},
        {"id":"minecraft:diamond_ore", "required" : false},
        {"id":"minecraft:nether_gold_ore", "required" : false},
        {"id":"minecraft:redstone_ore", "required" : false},
        {"id":"minecraft:emerald_ore", "required" : false},
        {"id":"minecraft:nether_quartz_ore", "required" : false},
        {"id":"minecraft:ancient_debris", "required" : false},
        {"id":"minecraft:copper_ore", "required" : false},
        {"id":"netherthings:nether_coal_ore", "required" : false},
        {"id":"netherthings:nether_iron_ore", "required" : false},
        {"id":"netherthings:nether_gold_ore", "required" : false},
        {"id":"netherthings:nether_redstone_ore", "required" : false},
        {"id":"netherthings:nether_lapis_ore", "required" : false},
        {"id":"netherthings:nether_emerald_ore", "required" : false},
        {"id":"netherthings:glowstone_ore", "required" : false},
        {"id":"netherthings:quartz_ore", "required" : false},
        {"id":"netherthings:nether_vibranium_ore", "required" : false},
        {"id":"refinedmachinery:copper_ore", "required" : false},
        {"id":"refinedmachinery:lead_ore", "required" : false},
        {"id":"refinedmachinery:silver_ore", "required" : false},
        {"id":"refinedmachinery:tin_ore", "required" : false},
        {"id":"refinedmachinery:nickel_ore", "required" : false},
        {"id":"techreborn:bauxite_ore", "required" : false},
        {"id":"techreborn:cinnabar_ore", "required" : false},
        {"id":"techreborn:copper_ore", "required" : false},
        {"id":"techreborn:galena_ore", "required" : false},
        {"id":"techreborn:iridium_ore", "required" : false},
        {"id":"techreborn:lead_ore", "required" : false},
        {"id":"techreborn:peridot_ore", "required" : false},
        {"id":"techreborn:pyrite_ore", "required" : false},
        {"id":"techreborn:ruby_ore", "required" : false},
        {"id":"techreborn:sapphire_ore", "required" : false},
        {"id":"techreborn:sheldonite_ore", "required" : false},
        {"id":"techreborn:silver_ore", "required" : false},
        {"id":"techreborn:sodalite_ore", "required" : false},
        {"id":"techreborn:sphalerite_ore", "required" : false},
        {"id":"techreborn:tin_ore", "required" : false},
        {"id":"techreborn:tungsten_ore", "required" : false},
        {"id":"astromine:copper_ore", "required" : false},
        {"id":"astromine:tin_ore", "required" : false},
        {"id":"astromine:silver_ore", "required" : false},
        {"id":"astromine:lead_ore", "required" : false},
        {"id":"astromine:meteor_metite_ore", "required" : false},
        {"id":"astromine:asteroid_metite_ore", "required" : false},
        {"id":"astromine:asteroid_asterite_ore", "required" : false},
        {"id":"astromine:asteroid_stellum_ore", "required" : false},
        {"id":"astromine:asteroid_galaxium_ore", "required" : false},
        {"id":"astromine:asteroid_copper_ore", "required" : false},
        {"id":"astromine:asteroid_tin_ore", "required" : false},
        {"id":"astromine:asteroid_silver_ore", "required" : false},
        {"id":"astromine:asteroid_lead_ore", "required" : false},
        {"id":"astromine:asteroid_coal_ore", "required" : false},
        {"id":"astromine:asteroid_iron_ore", "required" : false},
        {"id":"astromine:asteroid_gold_ore", "required" : false},
        {"id":"astromine:asteroid_redstone_ore", "required" : false},
        {"id":"astromine:asteroid_lapis_ore", "required" : false},
        {"id":"astromine:asteroid_diamond_ore", "required" : false},
        {"id":"astromine:asteroid_emerald_ore", "required" : false},
        {"id":"#c:ores", "required" : false}
    ]
}