{
    "replace":false,
    "values":[
        "minecraft:chainmail_helmet",
        "minecraft:chainmail_chestplate",
        "minecraft:chainmail_leggings",
        "minecraft:chainmail_boots",
        "minecraft:iron_helmet",
        "minecraft:iron_chestplate",
        "minecraft:iron_leggings",
        "minecraft:iron_boots",
        "minecraft:golden_helmet",
        "minecraft:golden_chestplate",
        "minecraft:golden_leggings",
        "minecraft:golden_boots",
        "minecraft:netherite_helmet",
        "minecraft:netherite_chestplate",
        "minecraft:netherite_leggings",
        "minecraft:netherite_boots",
        "minecraft:diamond_helmet",
        "minecraft:diamond_chestplate",
        "minecraft:diamond_leggings",
        "minecraft:diamond_boots",
        "minecraft:leather_helmet",
        "minecraft:leather_chestplate",
        "minecraft:leather_leggings",
        "minecraft:leather_boots",
        "minecraft:turtle_helmet"
    ]
}