{
    "replace":false,
    "values":[
        "minecraft:chainmail_helmet",
        "minecraft:iron_helmet",
        "minecraft:golden_helmet",
        "minecraft:netherite_helmet",
        "minecraft:diamond_helmet",
        "minecraft:leather_helmet",
        "minecraft:turtle_helmet"
    ]
}