{
    "replace":false,
    "values":[
        "minecraft:diamond_axe",
        "minecraft:diamond_sword",
        "minecraft:golden_axe",
        "minecraft:golden_sword",
        "minecraft:wooden_axe",
        "minecraft:wooden_sword",
        "minecraft:iron_axe",
        "minecraft:iron_sword",
        "minecraft:stone_axe",
        "minecraft:stone_sword",
        "minecraft:netherite_axe",
        "minecraft:netherite_sword",
        "minecraft:bow",
        "minecraft:crossbow",
        "minecraft:trident",
        "minecraft:shield"
    ]
}